{
  "routes": [
    {
      "method": "GET",
      "path": "/story-comments",
      "handler": "story-comment.find",
      "config": {
        "policies": []
      }
    },
    {
      "method": "GET",
      "path": "/story-comments/count",
      "handler": "story-comment.count",
      "config": {
        "policies": []
      }
    },
    {
      "method": "GET",
      "path": "/story-comments/:id",
      "handler": "story-comment.findOne",
      "config": {
        "policies": []
      }
    },
    {
      "method": "POST",
      "path": "/story-comments",
      "handler": "story-comment.create",
      "config": {
        "policies": []
      }
    },
    {
      "method": "PUT",
      "path": "/story-comments/:id",
      "handler": "story-comment.update",
      "config": {
        "policies": []
      }
    },
    {
      "method": "DELETE",
      "path": "/story-comments/:id",
      "handler": "story-comment.delete",
      "config": {
        "policies": []
      }
    }
  ]
}
