{
  "kind": "collectionType",
  "collectionName": "rating_records",
  "info": {
    "name": "RatingRecord"
  },
  "options": {
    "increments": true,
    "timestamps": true,
    "draftAndPublish": false
  },
  "pluginOptions": {},
  "attributes": {
    "score": {
      "type": "integer",
      "required": true,
      "max": 10,
      "min": 0
    },
    "owner": {
      "plugin": "users-permissions",
      "model": "user"
    },
    "target": {
      "plugin": "users-permissions",
      "model": "user"
    },
    "story": {
      "model": "story"
    }
  }
}
