{
  "kind": "collectionType",
  "collectionName": "perks",
  "info": {
    "name": "Perks"
  },
  "options": {
    "increments": true,
    "timestamps": true,
    "draftAndPublish": false
  },
  "pluginOptions": {},
  "attributes": {
    "title": {
      "type": "string",
      "required": true,
      "unique": true
    }
  }
}
